<svg xmlns="http://www.w3.org/2000/svg" width="540.347" height="555.671" viewBox="0 0 540.347 555.671">
  <g id="patten-service" opacity="0.402">
    <path id="Fill_83" data-name="Fill 83" d="M0,37.848H0l6.56-11.379H7.716L1.732,36.847l20.106-.017,20.111-.009L31.882,19.412,21.814,2l-5.8,10.072-.578-1L21.812,0,32.748,18.912,43.682,37.82l-21.843.01ZM9.446,21.466h0l3.106-5.389.578,1-1.351,2.347L10.6,21.465Z" transform="translate(276.339 114.724)" fill="#326eff"/>
    <path id="Fill_84" data-name="Fill 84" d="M1.155,15.4H0l2.884-5H4.038l-2.883,5ZM6.568,6V6L5.99,5,8.873,0l.578,1L6.569,6Z" transform="translate(282.9 125.796)" fill="#326eff"/>
    <path id="Fill_85" data-name="Fill 85" d="M0,37.848H0l6.56-11.379H7.716L1.731,36.847l20.107-.017,20.111-.009L31.882,19.412,21.814,2l-5.8,10.072-.578-1L21.812,0,32.748,18.912,43.682,37.82l-21.843.01ZM9.446,21.466h0l3.106-5.389.578,1-1.352,2.347L10.6,21.465Z" transform="translate(241.62 336.726)" fill="#326eff"/>
    <path id="Fill_86" data-name="Fill 86" d="M1.155,15.4H0l2.884-5H4.038l-2.883,5ZM6.568,6V6L5.99,5,8.873,0l.578,1L6.569,6Z" transform="translate(248.181 347.798)" fill="#326eff"/>
    <path id="Fill_87" data-name="Fill 87" d="M0,37.848H0l6.56-11.379H7.716L1.732,36.847l20.106-.017,20.11-.01L31.882,19.412,21.814,2l-5.8,10.072-.579-1L21.812,0,32.748,18.912,43.681,37.82l-21.841.01ZM9.446,21.466h0l3.106-5.389.578,1-2.53,4.39Z" transform="translate(361.966 404.9)" fill="#326eff"/>
    <path id="Fill_88" data-name="Fill 88" d="M0,15.4H0v0l2.883-5H4.038l-2.884,5ZM6.568,6V6L5.99,5,8.872,0l.579,1L6.569,6Z" transform="translate(368.527 415.972)" fill="#326eff"/>
    <path id="Fill_89" data-name="Fill 89" d="M30.907,42.208h0L15.455,26.77l-3.74-3.735.3-1.116,4.149,4.144L30.388,40.276,40.773,1.416,21.357,6.638,15.688,8.161l.3-1.115L21.1,5.673,42.186,0,30.907,42.207ZM7.628,18.956h0L0,11.339l10.41-2.8-.3,1.116-8.18,2.2L7.926,17.84l-.3,1.114Z" transform="translate(427.436 263.656)" fill="#326eff"/>
    <path id="Fill_90" data-name="Fill 90" d="M4.086,15.989h0L0,11.91l.3-1.116,4.086,4.08-.3,1.114ZM2.484,2.613v0l.3-1.114L8.358,0l-.3,1.115-5.575,1.5Z" transform="translate(435.064 270.702)" fill="#326eff"/>
    <path id="Fill_91" data-name="Fill 91" d="M30.908,42.207h0L11.715,23.034l.3-1.115,4.149,4.143L30.389,40.275,40.773,1.415,21.357,6.638,15.689,8.16l.3-1.115L21.1,5.672,42.186,0,30.908,42.206ZM7.629,18.956h0L0,11.339l10.411-2.8-.3,1.115-8.181,2.2L7.927,17.84l-.3,1.114Z" transform="translate(82.509 28.365)" fill="#326eff"/>
    <path id="Fill_92" data-name="Fill 92" d="M4.086,15.989h0L0,11.911l.3-1.116,4.086,4.08-.3,1.113ZM2.484,2.613v0l.3-1.113L8.358,0l-.3,1.115-5.575,1.5Z" transform="translate(90.138 35.41)" fill="#326eff"/>
    <path id="Fill_93" data-name="Fill 93" d="M30.909,42.207h0L15.456,26.769l-3.74-3.734.3-1.116,4.149,4.143L30.39,40.275,35.58,20.848,40.773,1.416,21.358,6.638,15.69,8.161l.3-1.116L21.1,5.672,42.187,0,30.909,42.206ZM7.63,18.956h0L0,11.34l10.412-2.8-.3,1.116-8.181,2.2,5.995,5.985-.3,1.113Z" transform="translate(68.145 466.276)" fill="#326eff"/>
    <path id="Fill_94" data-name="Fill 94" d="M4.085,15.99h0L0,11.911.3,10.8l4.086,4.078-.3,1.114ZM2.484,2.614v0l.3-1.114L8.358,0l-.3,1.116-5.575,1.5Z" transform="translate(75.775 473.321)" fill="#326eff"/>
    <path id="Fill_95" data-name="Fill 95" d="M.026,40.425v0L.014,16.188l1-.579,0,2.972.009,20.111L18.433,28.624,35.846,18.557,18.424,8.52,15.771,6.99a2.5,2.5,0,0,0,.564-.828l2.588,1.491,18.923,10.9L.028,40.424ZM.009,10.415v0L0,0,1,.576l.007,9.261-1,.577Z" transform="translate(466.066 42.924)" fill="#326eff"/>
    <path id="Fill_96" data-name="Fill 96" d="M.017,19.445v0L.012,13.672l1-.578.005,5.773-1,.578Zm15.757-9.2h0L1,1.732l0,2.1L0,3.257,0,0,16.338,9.419a2.481,2.481,0,0,1-.563.827Z" transform="translate(466.063 39.667)" fill="#326eff"/>
    <path id="Fill_97" data-name="Fill 97" d="M.027,40.427v0L.014,16.188l1-.577.012,23.082L35.845,18.557,18.424,8.521l-2.653-1.53a2.477,2.477,0,0,0,.564-.829l2.588,1.491,18.923,10.9L18.934,29.492.029,40.426ZM.009,10.416v0L0,0,1,.577l.009,9.261-1,.577Z" transform="translate(85.06 252.474)" fill="#326eff"/>
    <path id="Fill_98" data-name="Fill 98" d="M.017,19.444v0l-.005-5.77,1-.578.005,5.773-1,.576Zm15.757-9.2h0L1,1.731v2.1L0,3.256,0,0,16.338,9.418a2.484,2.484,0,0,1-.563.829Z" transform="translate(85.057 249.218)" fill="#326eff"/>
    <path id="Fill_99" data-name="Fill 99" d="M16.336,32.826A16.42,16.42,0,0,1,.351,20.157c.306-.122.62-.258.934-.4a15.4,15.4,0,1,0,10.594-18.1c-.024-.329-.059-.67-.1-1.013a16.415,16.415,0,1,1,4.561,32.184ZM0,14.8v0A16.389,16.389,0,0,1,6.932,2.959v.095c0,.392-.018.791-.052,1.186A15.7,15.7,0,0,0,5.437,5.514,15.278,15.278,0,0,0,1.09,14.127C.735,14.371.369,14.6,0,14.8Z" transform="translate(311.853 230.776)" fill="#326eff"/>
    <path id="Fill_100" data-name="Fill 100" d="M.429,19.515h0A16.536,16.536,0,0,1,0,15.771c0-.532.026-1.075.078-1.613.373-.206.74-.433,1.09-.673A15.753,15.753,0,0,0,1,15.771a15.5,15.5,0,0,0,.363,3.34c-.318.148-.631.284-.932.4ZM6.958,3.6v0c.035-.4.052-.794.052-1.184v-.1A16.313,16.313,0,0,1,11.853,0c.045.343.08.683.1,1.012a15.318,15.318,0,0,0-5,2.585Z" transform="translate(311.775 231.418)" fill="#326eff"/>
    <path id="Fill_101" data-name="Fill 101" d="M16.335,32.826A16.42,16.42,0,0,1,.351,20.157c.313-.125.627-.261.933-.4a15.405,15.405,0,1,0,10.595-18.1c-.024-.329-.059-.67-.1-1.013a16.415,16.415,0,1,1,4.56,32.184ZM0,14.8v0A16.383,16.383,0,0,1,6.932,2.959v.094c0,.4-.018.8-.052,1.186A15.837,15.837,0,0,0,5.436,5.514,15.276,15.276,0,0,0,1.09,14.127C.733,14.371.367,14.6,0,14.8Z" transform="translate(231.449 53.193)" fill="#326eff"/>
    <path id="Fill_102" data-name="Fill 102" d="M.43,19.515h0A16.473,16.473,0,0,1,0,15.771c0-.536.027-1.078.079-1.613.372-.206.739-.433,1.09-.673a15.546,15.546,0,0,0,.194,5.626c-.31.145-.623.28-.931.4ZM6.959,3.6v0c.035-.385.052-.783.052-1.184V2.317A16.32,16.32,0,0,1,11.854,0c.045.343.08.683.1,1.012a15.3,15.3,0,0,0-5,2.584Z" transform="translate(231.37 53.835)" fill="#326eff"/>
    <path id="Fill_103" data-name="Fill 103" d="M16.336,32.826A16.421,16.421,0,0,1,.351,20.157c.306-.122.62-.258.934-.4A15.405,15.405,0,1,0,11.88,1.654c-.025-.328-.06-.669-.1-1.013a16.415,16.415,0,1,1,4.56,32.184ZM0,14.8v0A16.381,16.381,0,0,1,6.932,2.959v.094c0,.4-.017.795-.05,1.187A15.428,15.428,0,0,0,1.09,14.127c-.352.24-.718.467-1.088.673Z" transform="translate(241.604 522.845)" fill="#326eff"/>
    <path id="Fill_104" data-name="Fill 104" d="M.429,19.515h0A16.439,16.439,0,0,1,0,15.77c0-.541.026-1.083.078-1.611.375-.209.741-.435,1.09-.674a15.579,15.579,0,0,0,.194,5.626c-.318.148-.631.284-.932.4ZM6.959,3.6v0c.034-.389.051-.788.051-1.185V2.317A16.316,16.316,0,0,1,11.854,0c.045.345.079.685.1,1.012a15.287,15.287,0,0,0-5,2.585Z" transform="translate(241.526 523.487)" fill="#326eff"/>
    <path id="Fill_105" data-name="Fill 105" d="M32.828,16.412h-1A15.426,15.426,0,0,0,11.959,1.653c-.026-.344-.06-.674-.1-1.013A16.448,16.448,0,0,1,28.021,4.807a16.3,16.3,0,0,1,4.808,11.6ZM1,16.412H0A16.392,16.392,0,0,1,7.011,2.958v.095a2.463,2.463,0,0,0,.205.991,15.517,15.517,0,0,0-1.7,1.471A15.312,15.312,0,0,0,1,16.411Z" transform="translate(315.914 499.062)" fill="#326eff"/>
    <path id="Fill_106" data-name="Fill 106" d="M.2,3.4A2.482,2.482,0,0,1,0,2.412v-.1A16.36,16.36,0,0,1,4.844,0c.044.336.078.672.1,1.012A15.361,15.361,0,0,0,.2,3.4" transform="translate(322.925 499.703)" fill="#326eff"/>
    <path id="Fill_107" data-name="Fill 107" d="M32.827,16.412h-1A15.424,15.424,0,0,0,11.958,1.654c-.025-.328-.06-.669-.1-1.012a16.417,16.417,0,0,1,20.973,15.77ZM1,16.412H0A16.388,16.388,0,0,1,7.01,2.959v.095a2.478,2.478,0,0,0,.2.991,15.579,15.579,0,0,0-1.7,1.47A15.308,15.308,0,0,0,1,16.411Z" transform="translate(188.903 254.645)" fill="#326eff"/>
    <path id="Fill_108" data-name="Fill 108" d="M.2,3.4A2.5,2.5,0,0,1,0,2.412v-.1A16.324,16.324,0,0,1,4.844,0c.043.334.078.672.1,1.012A15.355,15.355,0,0,0,.2,3.4" transform="translate(195.913 255.287)" fill="#326eff"/>
    <path id="Fill_109" data-name="Fill 109" d="M32.682,16.413h-1A15.344,15.344,0,0,0,11.816,1.681c-.024-.322-.058-.663-.1-1.013A16.365,16.365,0,0,1,32.682,16.412ZM1,16.413H0A16.413,16.413,0,0,1,6.866,3.039v.015A2.475,2.475,0,0,0,7.1,4.11,15.417,15.417,0,0,0,1,16.412Z" transform="translate(21.485 125.442)" fill="#326eff"/>
    <path id="Fill_110" data-name="Fill 110" d="M.233,3.442A2.488,2.488,0,0,1,0,2.386V2.371A16.256,16.256,0,0,1,4.847,0c.043.335.078.673.1,1.013A15.253,15.253,0,0,0,.233,3.442" transform="translate(28.351 126.11)" fill="#326eff"/>
    <path id="Fill_111" data-name="Fill 111" d="M16.414,32.682A16.341,16.341,0,1,1,16.414,0V1a15.341,15.341,0,1,0,0,30.682v1" transform="translate(406.689 135.731)" fill="#326eff"/>
    <path id="Fill_112" data-name="Fill 112" d="M16.413,32.682A16.341,16.341,0,1,1,16.413,0V1a15.341,15.341,0,1,0,0,30.682v1" transform="translate(23.512 507.003)" fill="#326eff"/>
    <path id="Fill_113" data-name="Fill 113" d="M16.413,32.682A16.341,16.341,0,1,1,16.413,0V1a15.341,15.341,0,1,0,0,30.682v1" transform="translate(194.272 0.909)" fill="#326eff"/>
    <path id="Fill_114" data-name="Fill 114" d="M16.336,32.826A16.422,16.422,0,0,1,.351,20.157c.306-.122.62-.258.934-.4A15.4,15.4,0,1,0,11.88,1.653c-.024-.329-.059-.669-.1-1.012a16.415,16.415,0,1,1,4.56,32.184ZM0,14.8v0A16.385,16.385,0,0,1,6.932,2.959c0,.031,0,.062,0,.094,0,.388-.017.787-.051,1.186A15.5,15.5,0,0,0,5.437,5.514,15.273,15.273,0,0,0,1.09,14.127C.73,14.373.364,14.6,0,14.8Z" transform="translate(15.633 355.4)" fill="#326eff"/>
    <path id="Fill_115" data-name="Fill 115" d="M.429,19.515h0A16.439,16.439,0,0,1,0,15.77c0-.541.026-1.083.078-1.612.369-.2.735-.43,1.09-.673a15.579,15.579,0,0,0,.194,5.626c-.318.148-.631.284-.932.4ZM6.959,3.6v0c.035-.4.052-.794.052-1.184,0-.032,0-.063,0-.095A16.307,16.307,0,0,1,11.854,0c.045.343.08.683.1,1.011a15.318,15.318,0,0,0-5,2.585Z" transform="translate(15.555 356.042)" fill="#326eff"/>
    <path id="Fill_116" data-name="Fill 116" d="M16.336,32.826A16.42,16.42,0,0,1,.351,20.157c.319-.128.633-.264.934-.4a15.4,15.4,0,1,0,10.594-18.1c-.024-.329-.059-.669-.1-1.012a16.415,16.415,0,1,1,4.561,32.184ZM0,14.8v0A16.385,16.385,0,0,1,6.931,2.959c0,.031,0,.062,0,.093,0,.393-.018.792-.052,1.188A15.68,15.68,0,0,0,5.437,5.513,15.284,15.284,0,0,0,1.09,14.126c-.351.241-.717.467-1.088.672Z" transform="translate(506.355 373.574)" fill="#326eff"/>
    <path id="Fill_117" data-name="Fill 117" d="M.429,19.515h0A16.54,16.54,0,0,1,0,15.77c0-.533.026-1.075.078-1.612.378-.21.744-.436,1.09-.674a15.584,15.584,0,0,0,.194,5.627c-.3.142-.618.277-.932.4ZM6.958,3.6v0c.035-.4.052-.795.052-1.186,0-.031,0-.062,0-.094A16.31,16.31,0,0,1,11.853,0c.045.343.08.683.1,1.011a15.319,15.319,0,0,0-5,2.586Z" transform="translate(506.277 374.216)" fill="#326eff"/>
    <path id="Fill_118" data-name="Fill 118" d="M32.654,32.654H0V21.294H1v10.36H31.654V1H11.838V0H32.654V32.653ZM1,16.294H0V0H6.838V1H1V16.293Z" transform="translate(494.086 135.745)" fill="#326eff"/>
    <path id="Fill_119" data-name="Fill 119" d="M1,21.294H0v-5H1v5ZM11.838,1h-5V0h5V1Z" transform="translate(494.086 135.745)" fill="#326eff"/>
    <path id="Fill_120" data-name="Fill 120" d="M32.653,32.654H0V21.295H1V31.654H31.653V1H11.836V0H32.653V32.653ZM1,16.3H0V0H6.836V1H1V16.294Z" transform="translate(136.195 151.572)" fill="#326eff"/>
    <path id="Fill_121" data-name="Fill 121" d="M1,21.295H0v-5H1v5ZM11.836,1h-5V0h5V1Z" transform="translate(136.195 151.572)" fill="#326eff"/>
    <path id="Fill_122" data-name="Fill 122" d="M32.653,32.654H0V21.295H1V31.654H31.653V1H11.837V0H32.653V32.653ZM1,16.3H0V0H6.837V1H1V16.294Z" transform="translate(134.606 353.658)" fill="#326eff"/>
    <path id="Fill_123" data-name="Fill 123" d="M1,21.295H0v-5H1v5ZM11.837,1h-5V0h5V1Z" transform="translate(134.606 353.658)" fill="#326eff"/>
    <path id="Fill_124" data-name="Fill 124" d="M32.652,32.654H0V21.295H1V31.654H31.652V1H11.836V0H32.652V32.653ZM1,16.3H0V0H6.836V1H1V16.294Z" transform="translate(494.086 507.017)" fill="#326eff"/>
    <path id="Fill_125" data-name="Fill 125" d="M1,21.295H0v-5H1v5ZM11.836,1h-5V0h5V1Z" transform="translate(494.086 507.017)" fill="#326eff"/>
    <path id="Fill_126" data-name="Fill 126" d="M32.652,32.655H0V21.295H1v10.36H31.652V1H11.836V0H32.652V32.654ZM1,16.3H0V0H6.836V1H1V16.294Z" transform="translate(362.777 0.923)" fill="#326eff"/>
    <path id="Fill_127" data-name="Fill 127" d="M1,21.295H0v-5H1v5ZM11.836,1h-5V0h5V1Z" transform="translate(362.777 0.923)" fill="#326eff"/>
    <path id="Fill_128" data-name="Fill 128" d="M14.52,13.254a5.261,5.261,0,0,1-3.454-1.246A10.7,10.7,0,0,1,8.8,9.13c-1.287-2.2-2.368-4.735-4.116-6.349A6.508,6.508,0,0,0,0,1V0H.011A7.633,7.633,0,0,1,4.3,1.212,10.056,10.056,0,0,1,7.068,4.1c1.482,2.219,2.484,4.8,3.9,6.413a4.485,4.485,0,0,0,3.569,1.743v1H14.52" transform="translate(303.256 310.525)" fill="#326eff"/>
    <path id="Fill_129" data-name="Fill 129" d="M14.519,13.254a5.262,5.262,0,0,1-3.455-1.246A10.719,10.719,0,0,1,8.793,9.13c-1.286-2.2-2.367-4.735-4.115-6.349A6.505,6.505,0,0,0,0,1V0H.011A7.632,7.632,0,0,1,4.3,1.212,10.026,10.026,0,0,1,7.066,4.1c1.483,2.219,2.484,4.8,3.9,6.413a4.486,4.486,0,0,0,3.569,1.743v1h-.016" transform="translate(332.33 310.525)" fill="#326eff"/>
    <path id="Fill_130" data-name="Fill 130" d="M.025,13.254H0v-1a4.249,4.249,0,0,0,2.833-1.016A9.806,9.806,0,0,0,4.88,8.623c1.249-2.11,2.336-4.743,4.3-6.575A7.522,7.522,0,0,1,14.513,0h.024V1a6.617,6.617,0,0,0-3.75,1.049A9.06,9.06,0,0,0,8.3,4.656C6.888,6.745,5.9,9.338,4.324,11.167a5.5,5.5,0,0,1-4.3,2.087" transform="translate(317.793 310.525)" fill="#326eff"/>
    <path id="Fill_131" data-name="Fill 131" d="M.025,13.254H0v-1a4.244,4.244,0,0,0,2.832-1.016A9.786,9.786,0,0,0,4.879,8.623c1.25-2.11,2.336-4.743,4.3-6.575A7.521,7.521,0,0,1,14.511,0h.024V1a6.614,6.614,0,0,0-3.749,1.049A9.047,9.047,0,0,0,8.3,4.656c-1.41,2.089-2.4,4.682-3.975,6.511a5.5,5.5,0,0,1-4.3,2.087" transform="translate(346.865 310.525)" fill="#326eff"/>
    <path id="Fill_132" data-name="Fill 132" d="M14.521,13.256a5.262,5.262,0,0,1-3.455-1.246A10.719,10.719,0,0,1,8.8,9.132C7.509,6.933,6.428,4.4,4.68,2.781A6.514,6.514,0,0,0,0,1V0H.011A7.625,7.625,0,0,1,4.3,1.213,10.029,10.029,0,0,1,7.068,4.1c1.483,2.22,2.484,4.8,3.9,6.414a4.487,4.487,0,0,0,3.569,1.743v1h-.016" transform="translate(386.074 538.757)" fill="#326eff"/>
    <path id="Fill_133" data-name="Fill 133" d="M14.519,13.254a5.259,5.259,0,0,1-3.454-1.246A10.723,10.723,0,0,1,8.793,9.13C7.507,6.932,6.426,4.4,4.679,2.781A6.514,6.514,0,0,0,0,1V0H.012A7.618,7.618,0,0,1,4.3,1.213,10.017,10.017,0,0,1,7.067,4.1c1.482,2.219,2.484,4.8,3.9,6.413a4.489,4.489,0,0,0,3.569,1.742v1h-.016" transform="translate(415.148 538.759)" fill="#326eff"/>
    <path id="Fill_134" data-name="Fill 134" d="M.025,13.254H0v-1a4.245,4.245,0,0,0,2.833-1.016A9.77,9.77,0,0,0,4.88,8.623c1.25-2.11,2.336-4.743,4.3-6.574A7.521,7.521,0,0,1,14.513,0h.024V1a6.627,6.627,0,0,0-3.75,1.049A9.06,9.06,0,0,0,8.3,4.656c-1.41,2.089-2.4,4.682-3.975,6.511a5.5,5.5,0,0,1-4.3,2.087" transform="translate(400.611 538.759)" fill="#326eff"/>
    <path id="Fill_135" data-name="Fill 135" d="M0,13.254v-1a4.245,4.245,0,0,0,2.832-1.017A9.754,9.754,0,0,0,4.879,8.622c1.249-2.109,2.336-4.742,4.3-6.574A7.522,7.522,0,0,1,14.509,0h.025l.081.006-.159.988.078-.487V1h0a6.62,6.62,0,0,0-3.748,1.049A9.031,9.031,0,0,0,8.3,4.656c-1.411,2.088-2.4,4.681-3.975,6.51a5.5,5.5,0,0,1-4.3,2.088H0" transform="translate(429.683 538.759)" fill="#326eff"/>
    <path id="Fill_136" data-name="Fill 136" d="M14.519,13.255a5.261,5.261,0,0,1-3.454-1.246A10.7,10.7,0,0,1,8.794,9.131C7.507,6.933,6.427,4.4,4.679,2.781A6.51,6.51,0,0,0,0,1V0H.012A7.624,7.624,0,0,1,4.3,1.213,10.026,10.026,0,0,1,7.067,4.1c1.482,2.219,2.484,4.8,3.9,6.413a4.485,4.485,0,0,0,3.569,1.743v1h-.017" transform="translate(425.718 209.716)" fill="#326eff"/>
    <path id="Fill_137" data-name="Fill 137" d="M14.518,13.254a5.261,5.261,0,0,1-3.454-1.246A10.73,10.73,0,0,1,8.793,9.131C7.506,6.932,6.426,4.4,4.678,2.781A6.509,6.509,0,0,0,0,1V0H.011A7.622,7.622,0,0,1,4.3,1.213,10.026,10.026,0,0,1,7.066,4.1c1.483,2.219,2.484,4.8,3.9,6.413a4.488,4.488,0,0,0,3.569,1.742v1h-.017" transform="translate(454.791 209.717)" fill="#326eff"/>
    <path id="Fill_138" data-name="Fill 138" d="M.025,13.254H0v-1a4.249,4.249,0,0,0,2.833-1.016A9.77,9.77,0,0,0,4.88,8.623c1.25-2.11,2.337-4.743,4.3-6.574A7.521,7.521,0,0,1,14.513,0h.024V1a6.622,6.622,0,0,0-3.749,1.049A9.033,9.033,0,0,0,8.3,4.656C6.889,6.745,5.9,9.338,4.324,11.167a5.5,5.5,0,0,1-4.3,2.087" transform="translate(440.254 209.717)" fill="#326eff"/>
    <path id="Fill_139" data-name="Fill 139" d="M.024,13.254H0v-1a4.249,4.249,0,0,0,2.833-1.016A9.806,9.806,0,0,0,4.88,8.623c1.249-2.11,2.336-4.743,4.3-6.575A7.525,7.525,0,0,1,14.513,0h.024V1a6.627,6.627,0,0,0-3.75,1.049A9.06,9.06,0,0,0,8.3,4.656C6.888,6.745,5.9,9.338,4.324,11.167a5.506,5.506,0,0,1-4.3,2.087" transform="translate(469.326 209.717)" fill="#326eff"/>
    <path id="Fill_140" data-name="Fill 140" d="M14.52,13.255a5.262,5.262,0,0,1-3.455-1.246A10.751,10.751,0,0,1,8.794,9.131C7.508,6.932,6.427,4.4,4.679,2.781A6.51,6.51,0,0,0,0,1V0H.011A7.619,7.619,0,0,1,4.3,1.212,10.042,10.042,0,0,1,7.067,4.1c1.483,2.22,2.484,4.8,3.9,6.414a4.487,4.487,0,0,0,3.569,1.743v1H14.52" transform="translate(21.436 194.908)" fill="#326eff"/>
    <path id="Fill_141" data-name="Fill 141" d="M14.519,13.254a5.262,5.262,0,0,1-3.455-1.246A10.735,10.735,0,0,1,8.793,9.13c-1.286-2.2-2.367-4.735-4.115-6.349A6.505,6.505,0,0,0,0,1V0H.012A7.62,7.62,0,0,1,4.3,1.212,10.029,10.029,0,0,1,7.067,4.1c1.482,2.219,2.483,4.795,3.9,6.413a4.49,4.49,0,0,0,3.569,1.743v1h-.016" transform="translate(50.509 194.909)" fill="#326eff"/>
    <path id="Fill_142" data-name="Fill 142" d="M.025,13.254H0v-1a4.252,4.252,0,0,0,2.833-1.016A9.808,9.808,0,0,0,4.881,8.623c1.249-2.11,2.335-4.743,4.3-6.575A7.525,7.525,0,0,1,14.513,0h.024V1a6.62,6.62,0,0,0-3.75,1.049A9.018,9.018,0,0,0,8.3,4.656C6.889,6.745,5.9,9.338,4.324,11.167a5.505,5.505,0,0,1-4.3,2.087" transform="translate(35.972 194.909)" fill="#326eff"/>
    <path id="Fill_143" data-name="Fill 143" d="M.025,13.254H0v-1a4.254,4.254,0,0,0,2.833-1.017A9.79,9.79,0,0,0,4.88,8.622c1.249-2.109,2.335-4.742,4.3-6.574A7.518,7.518,0,0,1,14.511,0h.065l-.04.507V1h0a6.616,6.616,0,0,0-3.749,1.049A9.027,9.027,0,0,0,8.3,4.655C6.888,6.744,5.9,9.337,4.324,11.166a5.5,5.5,0,0,1-4.3,2.088" transform="translate(65.044 194.909)" fill="#326eff"/>
    <path id="Fill_144" data-name="Fill 144" d="M1,14.536H0a7.621,7.621,0,0,1,1.213-4.3A10.026,10.026,0,0,1,4.1,7.469c2.22-1.483,4.8-2.484,6.413-3.9A4.487,4.487,0,0,0,12.254,0h1a5.263,5.263,0,0,1-1.246,3.471A10.719,10.719,0,0,1,9.13,5.742C6.932,7.028,4.4,8.109,2.781,9.857A6.51,6.51,0,0,0,1,14.536" transform="translate(307.445 43.609)" fill="#326eff"/>
    <path id="Fill_145" data-name="Fill 145" d="M1,14.535H0a7.621,7.621,0,0,1,1.213-4.3A10.026,10.026,0,0,1,4.1,7.468c2.22-1.482,4.8-2.484,6.413-3.9A4.487,4.487,0,0,0,12.254,0h1a5.26,5.26,0,0,1-1.246,3.47A10.723,10.723,0,0,1,9.13,5.742C6.932,7.028,4.4,8.108,2.781,9.856A6.514,6.514,0,0,0,1,14.535" transform="translate(307.445 14.537)" fill="#326eff"/>
    <path id="Fill_146" data-name="Fill 146" d="M13.254,14.537h-1A4.245,4.245,0,0,0,11.238,11.7,9.788,9.788,0,0,0,8.623,9.656C6.513,8.407,3.88,7.32,2.049,5.36A7.526,7.526,0,0,1,0,0H1A6.614,6.614,0,0,0,2.049,3.749,9.047,9.047,0,0,0,4.656,6.237c2.089,1.411,4.682,2.4,6.511,3.976a5.5,5.5,0,0,1,2.087,4.324" transform="translate(307.445 29.072)" fill="#326eff"/>
    <path id="Fill_147" data-name="Fill 147" d="M13.254,14.537h-1A4.245,4.245,0,0,0,11.238,11.7,9.786,9.786,0,0,0,8.623,9.657C6.513,8.408,3.88,7.321,2.049,5.36A7.523,7.523,0,0,1,0,0H1A6.617,6.617,0,0,0,2.049,3.75,9.06,9.06,0,0,0,4.656,6.238c2.089,1.411,4.682,2.4,6.511,3.975a5.5,5.5,0,0,1,2.087,4.324" transform="translate(307.445 0)" fill="#326eff"/>
    <path id="Fill_148" data-name="Fill 148" d="M1,14.536H0a7.63,7.63,0,0,1,1.212-4.3A10.042,10.042,0,0,1,4.1,7.469c2.219-1.483,4.8-2.484,6.413-3.9A4.486,4.486,0,0,0,12.254,0h1a5.261,5.261,0,0,1-1.246,3.471A10.719,10.719,0,0,1,9.13,5.742C6.932,7.029,4.4,8.109,2.781,9.857A6.512,6.512,0,0,0,1,14.536" transform="translate(218.305 195.68)" fill="#326eff"/>
    <path id="Fill_149" data-name="Fill 149" d="M1,14.535H0a7.628,7.628,0,0,1,1.212-4.3A10.042,10.042,0,0,1,4.1,7.468c2.219-1.482,4.8-2.483,6.413-3.9A4.487,4.487,0,0,0,12.254,0h1a5.263,5.263,0,0,1-1.246,3.471A10.719,10.719,0,0,1,9.13,5.742C6.932,7.028,4.4,8.109,2.781,9.857A6.509,6.509,0,0,0,1,14.535" transform="translate(218.305 166.608)" fill="#326eff"/>
    <path id="Fill_150" data-name="Fill 150" d="M13.254,14.537h-1A4.248,4.248,0,0,0,11.238,11.7,9.786,9.786,0,0,0,8.623,9.657C6.513,8.407,3.88,7.32,2.048,5.36A7.528,7.528,0,0,1,0,0H1A6.62,6.62,0,0,0,2.049,3.75,9.044,9.044,0,0,0,4.656,6.237c2.089,1.411,4.682,2.4,6.511,3.976a5.5,5.5,0,0,1,2.087,4.324" transform="translate(218.305 181.143)" fill="#326eff"/>
    <path id="Fill_151" data-name="Fill 151" d="M13.254,14.536h-1A4.249,4.249,0,0,0,11.238,11.7,9.806,9.806,0,0,0,8.623,9.656C6.513,8.407,3.88,7.32,2.048,5.36A7.53,7.53,0,0,1,0,0H1A6.614,6.614,0,0,0,2.049,3.749,9.06,9.06,0,0,0,4.656,6.237c2.089,1.411,4.682,2.4,6.511,3.975a5.5,5.5,0,0,1,2.087,4.324" transform="translate(218.305 152.072)" fill="#326eff"/>
    <path id="Fill_152" data-name="Fill 152" d="M1,14.537H0a7.624,7.624,0,0,1,1.213-4.3A10.017,10.017,0,0,1,4.1,7.469c2.219-1.483,4.8-2.484,6.413-3.9A4.489,4.489,0,0,0,12.254,0h1a5.258,5.258,0,0,1-1.246,3.471A10.73,10.73,0,0,1,9.131,5.742C6.932,7.028,4.4,8.109,2.781,9.857A6.514,6.514,0,0,0,1,14.537" transform="translate(459.937 438.609)" fill="#326eff"/>
    <path id="Fill_153" data-name="Fill 153" d="M1,14.535H0a7.621,7.621,0,0,1,1.213-4.3A10.017,10.017,0,0,1,4.1,7.468c2.219-1.482,4.8-2.484,6.413-3.9A4.489,4.489,0,0,0,12.254,0h1a5.255,5.255,0,0,1-1.246,3.47A10.733,10.733,0,0,1,9.131,5.742C6.932,7.028,4.4,8.108,2.781,9.856A6.512,6.512,0,0,0,1,14.535" transform="translate(459.937 409.537)" fill="#326eff"/>
    <path id="Fill_154" data-name="Fill 154" d="M13.254,14.537h-1A4.245,4.245,0,0,0,11.238,11.7,9.75,9.75,0,0,0,8.623,9.657c-2.11-1.25-4.743-2.336-6.574-4.3A7.525,7.525,0,0,1,0,0H1A6.627,6.627,0,0,0,2.049,3.75,9.044,9.044,0,0,0,4.656,6.237c2.089,1.411,4.682,2.4,6.511,3.976a5.5,5.5,0,0,1,2.087,4.324" transform="translate(459.937 424.072)" fill="#326eff"/>
    <path id="Fill_155" data-name="Fill 155" d="M13.254,14.536h-1A4.247,4.247,0,0,0,11.238,11.7,9.79,9.79,0,0,0,8.623,9.656C6.513,8.407,3.88,7.32,2.049,5.36A7.525,7.525,0,0,1,0,0H1A6.627,6.627,0,0,0,2.049,3.75,9.044,9.044,0,0,0,4.656,6.237c2.089,1.411,4.682,2.4,6.511,3.975a5.5,5.5,0,0,1,2.087,4.324" transform="translate(459.937 395.001)" fill="#326eff"/>
    <path id="Fill_156" data-name="Fill 156" d="M1,14.535H0a7.623,7.623,0,0,1,1.213-4.3A10.009,10.009,0,0,1,4.1,7.469c2.22-1.483,4.8-2.484,6.413-3.9A4.486,4.486,0,0,0,12.254,0h1a5.263,5.263,0,0,1-1.246,3.471A10.719,10.719,0,0,1,9.13,5.742C6.932,7.028,4.4,8.109,2.781,9.857A6.509,6.509,0,0,0,1,14.535" transform="translate(160.132 461.519)" fill="#326eff"/>
    <path id="Fill_157" data-name="Fill 157" d="M1,14.535H0a7.621,7.621,0,0,1,1.213-4.3A10.026,10.026,0,0,1,4.1,7.468c2.22-1.482,4.8-2.483,6.413-3.9A4.487,4.487,0,0,0,12.254,0h1a5.26,5.26,0,0,1-1.246,3.47A10.7,10.7,0,0,1,9.13,5.742C6.932,7.028,4.4,8.108,2.781,9.856A6.514,6.514,0,0,0,1,14.535" transform="translate(160.132 432.447)" fill="#326eff"/>
    <path id="Fill_158" data-name="Fill 158" d="M13.254,14.537h-1A4.245,4.245,0,0,0,11.238,11.7,9.772,9.772,0,0,0,8.623,9.656C6.513,8.407,3.88,7.32,2.049,5.359A7.522,7.522,0,0,1,0,0H1A6.622,6.622,0,0,0,2.049,3.749,9.06,9.06,0,0,0,4.656,6.237c2.089,1.411,4.682,2.4,6.511,3.976a5.5,5.5,0,0,1,2.087,4.324" transform="translate(160.132 446.982)" fill="#326eff"/>
    <path id="Fill_159" data-name="Fill 159" d="M13.254,14.537h-1A4.245,4.245,0,0,0,11.238,11.7,9.772,9.772,0,0,0,8.623,9.656C6.513,8.407,3.88,7.321,2.049,5.36A7.525,7.525,0,0,1,0,0H1A6.627,6.627,0,0,0,2.049,3.75,9.044,9.044,0,0,0,4.656,6.237c2.089,1.411,4.682,2.4,6.511,3.976a5.5,5.5,0,0,1,2.087,4.324" transform="translate(160.132 417.91)" fill="#326eff"/>
    <path id="Fill_160" data-name="Fill 160" d="M0,1H35.869V0H0Z" transform="translate(352.627 355.4)" fill="#326eff"/>
    <path id="Fill_161" data-name="Fill 161" d="M0,1H35.869V0H0Z" transform="translate(0 251.75)" fill="#326eff"/>
    <path id="Fill_162" data-name="Fill 162" d="M0,1H35.869V0H0Z" transform="translate(355.308 85.019)" fill="#326eff"/>
    <path id="Fill_163" data-name="Fill 163" d="M0,1H35.869V0H0Z" transform="translate(496.697 4.069)" fill="#326eff"/>
    <path id="Fill_164" data-name="Fill 164" d="M0,1H35.869V0H0Z" transform="translate(142.998 538.685)" fill="#326eff"/>
    <path id="Fill_165" data-name="Fill 165" d="M.707,26.071,0,25.364,25.363,0l.707.707L.707,26.071" transform="translate(234.748 444.171)" fill="#326eff"/>
    <path id="Fill_166" data-name="Fill 166" d="M.707,26.071,0,25.363,25.364,0l.707.707L.707,26.071" transform="translate(24.791 4.215)" fill="#326eff"/>
    <path id="Fill_167" data-name="Fill 167" d="M.707,26.071,0,25.364,25.363,0l.707.708L.707,26.071" transform="translate(514.277 264.227)" fill="#326eff"/>
  </g>
</svg>
