<svg id="taxi" xmlns="http://www.w3.org/2000/svg" width="24" height="24" viewBox="0 0 24 24">
  <g id="local_taxi-24px">
    <path id="Path" d="M0,0H24V24H0Z" fill="none"/>
    <path id="Shape" d="M17,18H16a1,1,0,0,1-1-1V16H3v1a1,1,0,0,1-1,1H1a1,1,0,0,1-1-1V9L2.08,3.01A1.5,1.5,0,0,1,3.5,2H6V0h6V2h2.5a1.5,1.5,0,0,1,1.42,1.01L18,9v8A1,1,0,0,1,17,18Zm-2.5-8A1.5,1.5,0,1,0,16,11.5,1.5,1.5,0,0,0,14.5,10Zm-11,0A1.5,1.5,0,1,0,5,11.5,1.5,1.5,0,0,0,3.5,10Zm0-6.5L2,8H16L14.5,3.5Z" transform="translate(3 3)" fill="#425e70"/>
  </g>
</svg>
